{
	"FPS": 		"mox.debug.fps",
	"Vida": 	"mox.player.info.live",
	"Mana": 	"mox.player.info.mana",
	"Armor": 	"mox.player.info.armor",
	"Veneno":	"mox.player.info.poison",
	"V.Daño":	"mox.player.info.changeStatus.poison",
	"Speed":	"mox.player.info.speed",
	"falling":	"mox.player.physic.falling",
	"fall":		"mox.player.physic.fall",
	"ladder":		"mox.player.physic.ladder",
	"climb":		"mox.player.physic.climb",
	"moment_fall":  "mox.player.physic.moment_fall",
	"jumping":  "mox.player.physic.jumping",
	"impulse":  "mox.player.physic.impulse",
	"max_impulse":  "mox.player.physic.max_impulse",
	"gravity":  "mox.player.physic.gravity",
	"flip":  "mox.player.physic.flip",
	"space":  "mox.player.map.attack",
	"Time": "mox.net.time"
}
