﻿{
	"info":	{
		"layers":		8,
		"preload_page":	"pageintro",
		"first_page":	"pagemenu",
		"setup_page":	"pageconfig",
		"width":		480,
		"height":		560,
		"fullscreen":	true,
		"portrait":		true,
		"online":		false,
		"socket_port":	8080,
		"debug":		false
	},
	"setup": 	{
		"language":		0,
		"vibrate":		0,
		"sound":		0,
		"graphics":		2,
		"newgame":		0,
		"player":		"guest"
	},
	"language": {
		"default":		"es",
		"names":		["English","Español"], 
		"codes":		["en","es"]
	}
}
