﻿{
	"preloader": ["Cargando..."],
	"general": ["Gamemox", "Versión", "TIMEMOX GAMES", "www.timemox.com","Oriol Faura", "oriol.faura@gmail.com"],
	"pagemenu": ["Nueva Partida","Continuar","Opciones","Más juegos","Menú"],
	"pageseguro": ["SI","NO","¿Estás seguro?"],
	"pagelevel": ["Volver","Jugar", "Seleccionar un nivel","Modo Troll","MataTrolls"],
	"pagegame": ["Volver", "Reintentar", "Nivel","¡Fallo!","¡Vuelve a intentarlo!","Completado","Medalla de Oro","Medalla de Plata","Intentos","Números","Potencias","Fracciones","Operaciones","Sólo "," y ","Aleatorio","Medalla de Bronce"],
	"pageoptions": ["Volver", "Idioma", "Vibración","Sonido","Gráficos", "BAJO","NORMAL","ALTO","SI","NO","Configuración"],
	"pagecontact": ["Volver", "Autor:","Contacto"],
	"pagetutorial": ["Siguiente","Anterior","Vale","Tutorial","Objetivo","Relaciona los términos","Cuando aparece 'infinito'," ,"dos cartas cambian de lugar.","Reglas","Para desbloquear niveles...","has de ganar","medallas de Oro"],	
	"pagewinner": ["¡¡Felicidades!!", "Has superado todos", "los niveles.", "¡Muchas gracias por jugar!","Has superado el Modo Troll"]
}
