<?xml version="1.0" standalone="no"?>
<!DOCTYPE svg PUBLIC "-//W3C//DTD SVG 1.1//EN" "http://www.w3.org/Graphics/SVG/1.1/DTD/svg11.dtd">
<svg xmlns="http://www.w3.org/2000/svg">
<metadata>Generated by Fontastic.me</metadata>
<defs>
<font id="timemox" horiz-adv-x="512">
<font-face font-family="timemox" units-per-em="512" ascent="480" descent="-32"/>
<missing-glyph horiz-adv-x="512" />

<glyph glyph-name="google-plus-square" unicode="&#97;" d="M273 164c0-14-5-25-16-32-11-7-25-11-40-11-8 0-16 1-23 3-8 2-15 5-22 8-7 4-12 9-16 15-4 7-7 14-7 23 0 8 3 16 8 23 4 6 11 11 18 14 8 4 16 6 24 7 8 2 16 3 24 3 4 0 7-1 9-1 0 0 2-2 6-5 4-3 7-4 8-5 1-1 3-3 6-5 4-3 6-5 7-7 2-1 3-3 6-6 2-3 4-5 5-7 0-3 1-5 2-8 1-3 1-6 1-9z m-21 156c0-12-3-21-9-29-6-7-15-11-26-11-11 0-19 4-27 12-8 8-13 17-16 28-4 10-5 20-5 30 0 12 3 22 9 30 6 8 15 12 26 12 10 0 19-4 27-13 7-8 13-18 16-29 4-10 5-21 5-30z m31 73l25 18-76 0c-16 0-32-3-46-9-14-6-27-15-36-28-10-12-15-27-15-43 0-18 6-33 18-45 13-11 28-17 46-17 4 0 8 0 12 1-3-6-4-11-4-16 0-8 4-17 12-27-34-2-58-8-74-18-9-5-16-12-21-20-6-9-9-18-9-28 0-8 2-15 6-22 3-6 8-12 14-16 5-4 12-8 19-10 8-3 15-5 22-6 8-2 15-2 22-2 12 0 23 1 35 4 11 3 22 8 32 13 10 6 18 14 25 24 6 10 9 21 9 33 0 10-2 18-6 26-3 8-8 14-14 19-5 5-11 9-16 14-6 4-10 8-14 12-4 4-6 9-6 13 0 4 2 8 5 12 3 4 6 8 10 11 4 4 9 8 13 12 4 5 8 10 11 17 3 7 4 15 4 24 0 11-2 21-6 28-5 8-12 16-21 26z m83-128l36 0 0 18-36 0 0 37-19 0 0-37-36 0 0-18 36 0 0-46 19 0z m109 128l0-274c0-23-8-42-24-58-16-16-35-24-58-24l-274 0c-23 0-42 8-58 24-16 16-24 35-24 58l0 274c0 23 8 42 24 58 16 16 35 24 58 24l274 0c23 0 42-8 58-24 16-16 24-35 24-58z"/>
<glyph glyph-name="arrow-circle-down" unicode="&#67;" d="M403 256c0 5-1 9-5 13l-26 26c-3 3-7 5-13 5-5 0-9-2-12-5l-54-54 0 143c0 5-2 9-6 13-3 3-8 5-13 5l-36 0c-5 0-10-2-13-5-4-4-6-8-6-13l0-143-54 54c-3 3-7 5-12 5-5 0-10-2-13-5l-26-26c-4-4-5-8-5-13 0-5 1-10 5-13l103-104 26-26c4-3 8-5 13-5 5 0 9 2 13 5l26 26 103 104c4 3 5 8 5 13z m72 0c0-40-9-77-29-110-20-34-46-60-80-80-33-20-70-29-110-29-40 0-77 9-110 29-34 20-60 46-80 80-20 33-29 70-29 110 0 40 9 77 29 110 20 34 46 60 80 80 33 20 70 29 110 29 40 0 77-9 110-29 34-20 60-46 80-80 20-33 29-70 29-110z"/>
<glyph glyph-name="arrow-circle-left" unicode="&#68;" d="M402 238l0 36c0 5-2 10-5 13-4 4-8 6-13 6l-143 0 54 54c3 3 5 7 5 12 0 5-2 10-5 13l-26 26c-4 4-8 5-13 5-5 0-10-1-13-5l-104-103-26-26c-3-4-5-8-5-13 0-5 2-9 5-13l26-26 104-103c3-4 8-5 13-5 5 0 9 1 13 5l26 26c3 3 5 7 5 13 0 5-2 9-5 12l-54 54 143 0c5 0 9 2 13 6 3 3 5 8 5 13z m73 18c0-40-9-77-29-110-20-34-46-60-80-80-33-20-70-29-110-29-40 0-77 9-110 29-34 20-60 46-80 80-20 33-29 70-29 110 0 40 9 77 29 110 20 34 46 60 80 80 33 20 70 29 110 29 40 0 77-9 110-29 34-20 60-46 80-80 20-33 29-70 29-110z"/>
<glyph glyph-name="arrow-circle-right" unicode="&#70;" d="M404 256c0 5-2 9-5 13l-26 26-104 103c-3 4-8 5-13 5-5 0-9-1-13-5l-26-26c-3-3-5-7-5-13 0-5 2-9 5-12l54-54-143 0c-5 0-9-2-13-6-3-3-5-8-5-13l0-36c0-5 2-10 5-13 4-4 8-6 13-6l143 0-54-54c-3-3-5-7-5-12 0-5 2-10 5-13l26-26c4-4 8-5 13-5 5 0 10 1 13 5l104 103 26 26c3 4 5 8 5 13z m71 0c0-40-9-77-29-110-20-34-46-60-80-80-33-20-70-29-110-29-40 0-77 9-110 29-34 20-60 46-80 80-20 33-29 70-29 110 0 40 9 77 29 110 20 34 46 60 80 80 33 20 70 29 110 29 40 0 77-9 110-29 34-20 60-46 80-80 20-33 29-70 29-110z"/>
<glyph glyph-name="arrow-circle-up" unicode="&#101;" d="M403 256c0 5-1 10-5 13l-103 104-26 26c-4 3-8 5-13 5-5 0-9-2-13-5l-26-26-103-104c-4-3-5-8-5-13 0-5 1-9 5-13l26-26c3-3 7-5 13-5 5 0 9 2 12 5l54 54 0-143c0-5 2-9 6-13 3-3 8-5 13-5l36 0c5 0 10 2 13 5 4 4 6 8 6 13l0 143 54-54c3-3 7-5 12-5 5 0 10 2 13 5l26 26c4 4 5 8 5 13z m72 0c0-40-9-77-29-110-20-34-46-60-80-80-33-20-70-29-110-29-40 0-77 9-110 29-34 20-60 46-80 80-20 33-29 70-29 110 0 40 9 77 29 110 20 34 46 60 80 80 33 20 70 29 110 29 40 0 77-9 110-29 34-20 60-46 80-80 20-33 29-70 29-110z"/>
<glyph glyph-name="caret-up" unicode="&#102;" d="M402 165c0-5-2-10-5-13-4-4-8-6-13-6l-256 0c-5 0-9 2-13 6-3 3-5 8-5 13 0 5 2 9 5 12l128 128c4 4 8 6 13 6 5 0 9-2 13-6l128-128c3-3 5-7 5-12z"/>
<glyph glyph-name="caret-right" unicode="&#103;" d="M329 256c0-5-2-9-5-13l-128-128c-4-3-8-5-13-5-5 0-9 2-13 5-4 4-5 8-5 13l0 256c0 5 1 9 5 13 4 3 8 5 13 5 5 0 9-2 13-5l128-128c3-4 5-8 5-13z"/>
<glyph glyph-name="caret-left" unicode="&#104;" d="M347 384l0-256c0-5-1-9-5-13-4-3-8-5-13-5-5 0-9 2-13 5l-128 128c-3 4-5 8-5 13 0 5 2 9 5 13l128 128c4 3 8 5 13 5 5 0 9-2 13-5 4-4 5-8 5-13z"/>
<glyph glyph-name="caret-down" unicode="&#105;" d="M402 311c0-5-2-9-5-13l-128-128c-4-4-8-5-13-5-5 0-9 1-13 5l-128 128c-3 4-5 8-5 13 0 5 2 9 5 13 4 3 8 5 13 5l256 0c5 0 9-2 13-5 3-4 5-8 5-13z"/>
<glyph glyph-name="cog" unicode="&#106;" d="M329 256c0 20-7 37-21 52-15 14-32 21-52 21-20 0-37-7-52-21-14-15-21-32-21-52 0-20 7-37 21-52 15-14 32-21 52-21 20 0 37 7 52 21 14 15 21 32 21 52z m146 31l0-63c0-3 0-5-2-7-1-2-3-3-6-4l-52-8c-4-10-8-19-12-26 7-9 17-22 31-39 2-2 3-5 3-7 0-3-1-5-3-7-5-7-14-17-28-31-14-13-23-20-27-20-2 0-5 1-7 3l-40 31c-8-5-17-8-26-11-3-26-6-44-8-53-1-6-5-8-10-8l-64 0c-2 0-5 0-7 2-2 2-3 4-3 6l-8 53c-9 3-18 6-26 10l-40-30c-2-2-4-3-7-3-3 0-5 1-7 3-24 22-40 38-47 48-2 2-2 4-2 7 0 2 0 4 2 6 3 4 8 11 14 19 7 9 12 16 16 21-5 9-9 19-12 28l-52 8c-3 0-5 1-6 3-2 2-2 4-2 7l0 63c0 3 0 5 2 7 1 2 3 3 5 4l53 8c3 8 7 17 12 26-8 11-18 24-31 39-2 3-3 5-3 7 0 2 1 4 3 7 5 7 14 17 28 30 14 14 23 21 27 21 2 0 5-1 7-3l40-31c8 5 17 8 26 11 3 26 6 44 8 53 1 6 5 8 10 8l64 0c2 0 5 0 7-2 2-2 3-4 3-6l8-53c9-3 18-6 26-10l40 30c2 2 4 3 7 3 3 0 5-1 7-3 25-23 41-39 47-49 2-1 2-3 2-6 0-2 0-4-2-6-3-4-8-11-14-19-7-9-12-16-16-21 5-9 9-18 12-28l52-8c3 0 5-1 6-3 2-2 2-4 2-7z"/>
<glyph glyph-name="envelope-o" unicode="&#107;" d="M475 82l0 220c-6-7-12-13-19-19-51-39-92-72-122-97-10-8-18-14-24-19-6-4-14-9-24-14-11-4-21-7-30-7l0 0c-9 0-19 3-30 7-10 5-18 10-24 14-6 5-14 11-24 19-30 25-71 58-122 97-7 6-13 12-19 19l0-220c0-2 0-4 2-6 2-2 4-3 7-3l420 0c3 0 5 1 7 3 2 2 2 4 2 6z m0 301l0 7 0 3-1 4-1 2-3 3-4 0-420 0c-3 0-5-1-7-2-2-2-2-4-2-7 0-32 14-59 42-81 36-29 75-59 114-91 1-1 5-3 10-8 6-5 10-8 13-11 4-2 8-5 13-9 5-3 10-6 14-8 5-1 9-2 13-2l0 0c4 0 8 1 13 2 4 2 9 5 14 8 5 4 9 7 13 9 3 3 7 6 13 11 5 5 9 7 10 8 39 32 78 62 114 91 11 8 20 19 29 33 9 14 13 26 13 38z m37 10l0-311c0-12-4-23-13-32-9-9-20-13-33-13l-420 0c-13 0-24 4-33 13-9 9-13 20-13 32l0 311c0 13 4 23 13 32 9 9 20 14 33 14l420 0c13 0 24-5 33-14 9-9 13-19 13-32z"/>
<glyph glyph-name="facebook-square" unicode="&#99;" d="M393 475c23 0 42-8 58-24 16-16 24-35 24-58l0-274c0-23-8-42-24-58-16-16-35-24-58-24l-54 0 0 170 57 0 9 66-66 0 0 42c0 11 3 19 7 24 5 5 13 8 26 8l35 0 0 60c-12 1-29 2-51 2-26 0-46-7-62-23-15-15-23-36-23-64l0-49-57 0 0-66 57 0 0-170-152 0c-23 0-42 8-58 24-16 16-24 35-24 58l0 274c0 23 8 42 24 58 16 16 35 24 58 24z"/>
<glyph glyph-name="floppy-o" unicode="&#110;" d="M146 73l220 0 0 110-220 0z m256 0l37 0 0 256c0 3-1 6-3 11-2 5-4 8-6 10l-80 80c-2 2-5 4-10 6-4 2-8 3-11 3l0-119c0-8-3-14-8-19-5-6-12-8-19-8l-165 0c-7 0-14 2-19 8-6 5-8 11-8 19l0 119-37 0 0-366 37 0 0 119c0 8 2 14 8 19 5 6 12 8 19 8l238 0c7 0 14-2 19-8 6-5 8-11 8-19z m-109 265l0 92c0 2-1 4-3 6-2 2-4 3-7 3l-54 0c-3 0-5-1-7-3-2-2-3-4-3-6l0-92c0-2 1-4 3-6 2-2 4-3 7-3l54 0c3 0 5 1 7 3 2 2 3 4 3 6z m182-9l0-265c0-8-2-14-8-19-5-6-11-8-19-8l-384 0c-8 0-14 2-19 8-6 5-8 11-8 19l0 384c0 8 2 14 8 19 5 6 11 8 19 8l265 0c8 0 16-1 25-5 9-4 17-9 22-14l80-80c5-5 10-13 14-22 4-9 5-17 5-25z"/>
<glyph glyph-name="home" unicode="&#111;" d="M421 229l0-138c0-5-2-9-6-12-3-4-8-6-13-6l-109 0 0 110-74 0 0-110-109 0c-5 0-10 2-13 6-4 3-6 7-6 12l0 138c0 0 0 0 0 0 0 1 0 1 0 1l164 136 165-136c0 0 0-1 0-1z m63 19l-17-21c-2-2-4-3-6-3l-1 0c-3 0-5 1-6 2l-198 165-198-165c-2-2-4-2-7-2-2 0-4 1-6 3l-17 21c-2 2-2 4-2 7 0 3 1 5 3 6l205 171c6 5 14 8 22 8 8 0 16-3 22-8l69-58 0 56c0 2 1 5 3 6 2 2 4 3 7 3l54 0c3 0 5-1 7-3 2-1 3-4 3-6l0-117 62-52c2-1 3-3 3-6 0-3 0-5-2-7z"/>
<glyph glyph-name="html5" unicode="&#112;" d="M378 341l4 50-252 0 13-152 175 0-6-65-57-15-56 15-3 40-50 0 6-80 103-28 2 0 0 0 102 28 14 156-184 0-4 51z m-323 134l402 0-36-410-166-47-164 47z"/>
<glyph glyph-name="key" unicode="&#113;" d="M238 366c0 15-6 28-16 39-11 10-24 16-39 16-15 0-28-6-39-16-11-11-16-24-16-39 0-8 2-16 5-24-7 4-15 5-23 5-16 0-28-5-39-16-11-10-16-23-16-38 0-16 5-29 16-39 11-11 23-16 39-16 15 0 28 5 39 16 10 10 16 23 16 39 0 8-2 15-6 23 8-3 16-5 24-5 15 0 28 5 39 16 10 11 16 23 16 39z m243-201c0-4-5-10-14-19-9-10-16-14-19-14-2 0-4 1-8 4-4 3-7 6-11 10-3 3-6 7-11 11-4 5-6 7-7 8l-27-28 63-63c5-5 8-12 8-19 0-8-4-16-11-23-8-8-15-11-23-11-8 0-15 2-20 8l-192 191c-33-25-68-37-104-37-31 0-56 10-76 29-19 20-29 45-29 76 0 30 9 60 27 89 18 30 42 53 71 71 29 18 59 27 89 27 31 0 57-9 76-29 20-19 30-45 30-76 0-36-13-70-38-104l102-101 27 27c-1 1-3 3-7 7-5 4-9 8-12 11-3 3-6 7-9 10-3 4-5 7-5 9 0 3 5 9 14 18 9 10 16 14 19 14 2 0 5-1 7-2 1-2 5-6 13-13 7-7 15-15 23-23 8-8 16-16 25-24 8-9 15-16 21-23 5-6 8-10 8-11z"/>
<glyph glyph-name="lightbulb-o" unicode="&#114;" d="M320 347c0-2-1-4-3-6-2-2-4-3-6-3-3 0-5 1-7 3-1 2-2 4-2 6 0 9-5 16-16 21-10 4-20 7-30 7-2 0-5 1-6 3-2 1-3 4-3 6 0 2 1 5 3 6 1 2 4 3 6 3 10 0 19-1 28-4 10-3 18-9 25-16 7-7 11-16 11-26z m46 0c0 14-4 27-10 39-7 12-15 21-26 29-10 7-22 13-35 17-13 5-26 7-39 7-13 0-26-2-39-7-13-4-25-10-35-17-11-8-19-17-26-29-6-12-10-25-10-39 0-19 7-36 20-51 2-2 5-5 8-9 4-5 7-8 9-10 25-29 38-57 40-85l66 0c2 28 15 56 40 85 2 2 5 5 9 10 3 4 6 7 8 9 13 15 20 32 20 51z m36 0c0-29-10-55-29-76-9-9-16-18-21-25-6-7-12-16-17-27-6-11-9-21-10-31 9-5 13-13 13-23 0-7-2-14-7-19 5-5 7-11 7-18 0-10-4-18-13-23 3-5 4-9 4-14 0-8-3-15-9-20-6-5-13-7-22-7-4-8-10-15-17-20-8-5-16-7-25-7-9 0-17 2-25 7-7 5-13 12-17 20-9 0-16 2-22 7-6 5-9 12-9 20 0 5 1 9 4 14-9 5-13 13-13 23 0 7 2 13 7 18-5 5-7 12-7 19 0 10 4 18 13 23-1 10-4 20-10 31-5 11-11 20-17 27-5 7-12 16-21 25-19 21-29 47-29 76 0 19 4 37 12 53 9 16 20 30 34 41 14 10 29 19 47 25 17 6 35 9 53 9 18 0 36-3 53-9 18-6 33-15 47-25 14-11 25-25 34-41 8-16 12-34 12-53z"/>
<glyph glyph-name="lock" unicode="&#115;" d="M183 293l146 0 0 54c0 21-7 38-21 52-15 14-32 22-52 22-20 0-37-8-52-22-14-14-21-31-21-52z m238-28l0-164c0-8-3-15-8-20-6-5-12-8-20-8l-274 0c-8 0-14 3-20 8-5 5-8 12-8 20l0 164c0 8 3 14 8 20 6 5 12 8 20 8l9 0 0 54c0 35 13 66 38 91 25 25 55 37 90 37 35 0 65-12 90-37 25-25 38-56 38-91l0-54 9 0c8 0 14-3 20-8 5-6 8-12 8-20z"/>
<glyph glyph-name="map-marker" unicode="&#108;" d="M329 329c0 20-7 38-21 52-15 14-32 21-52 21-20 0-37-7-52-21-14-14-21-32-21-52 0-20 7-37 21-52 15-14 32-21 52-21 20 0 37 7 52 21 14 15 21 32 21 52z m73 0c0-21-3-38-9-51l-104-221c-3-6-8-11-14-15-6-4-12-5-19-5-7 0-13 1-19 5-6 4-11 9-14 15l-104 221c-6 13-9 30-9 51 0 41 14 75 43 104 28 28 63 42 103 42 40 0 75-14 103-42 29-29 43-63 43-104z"/>
<glyph glyph-name="minus-circle" unicode="&#116;" d="M384 238l0 36c0 5-2 10-5 13-4 4-8 6-13 6l-220 0c-5 0-9-2-13-6-3-3-5-8-5-13l0-36c0-5 2-10 5-13 4-4 8-6 13-6l220 0c5 0 9 2 13 6 3 3 5 8 5 13z m91 18c0-40-9-77-29-110-20-34-46-60-80-80-33-20-70-29-110-29-40 0-77 9-110 29-34 20-60 46-80 80-20 33-29 70-29 110 0 40 9 77 29 110 20 34 46 60 80 80 33 20 70 29 110 29 40 0 77-9 110-29 34-20 60-46 80-80 20-33 29-70 29-110z"/>
<glyph glyph-name="power-off" unicode="&#117;" d="M475 256c0-30-5-58-17-85-12-27-27-51-47-70-19-20-43-35-70-47-27-12-55-17-85-17-30 0-58 5-85 17-27 12-51 27-70 47-20 19-35 43-47 70-12 27-17 55-17 85 0 35 7 67 23 98 15 31 36 56 64 77 8 6 18 9 28 7 10-1 18-6 23-14 7-8 9-17 7-27-1-10-6-18-14-24-18-14-33-31-43-52-10-20-15-42-15-65 0-20 4-39 11-57 8-18 18-33 32-46 13-14 28-24 46-32 18-7 37-11 57-11 20 0 39 4 57 11 18 8 33 18 46 32 14 13 24 28 32 46 7 18 11 37 11 57 0 23-5 45-15 65-10 21-25 38-43 52-8 6-13 14-14 24-2 10 0 19 7 27 5 8 13 13 24 14 10 2 19-1 27-7 28-21 49-46 64-77 16-31 23-63 23-98z m-182 219l0-182c0-10-4-19-11-26-8-7-16-11-26-11-10 0-18 4-26 11-7 7-11 16-11 26l0 182c0 10 4 19 11 26 8 7 16 11 26 11 10 0 18-4 26-11 7-7 11-16 11-26z"/>
<glyph glyph-name="times-circle" unicode="&#118;" d="M365 191c0 5-2 10-6 13l-51 52 51 52c4 3 6 8 6 13 0 5-2 9-6 13l-25 25c-4 4-8 6-13 6-5 0-10-2-13-6l-52-51-52 51c-3 4-8 6-13 6-5 0-9-2-13-6l-25-25c-4-4-6-8-6-13 0-5 2-10 6-13l51-52-51-52c-4-3-6-8-6-13 0-5 2-9 6-13l25-25c4-4 8-6 13-6 5 0 10 2 13 6l52 51 52-51c3-4 8-6 13-6 5 0 9 2 13 6l25 25c4 4 6 8 6 13z m110 65c0-40-9-77-29-110-20-34-46-60-80-80-33-20-70-29-110-29-40 0-77 9-110 29-34 20-60 46-80 80-20 33-29 70-29 110 0 40 9 77 29 110 20 34 46 60 80 80 33 20 70 29 110 29 40 0 77-9 110-29 34-20 60-46 80-80 20-33 29-70 29-110z"/>
<glyph glyph-name="trash-o" unicode="&#119;" d="M201 302l0-165c0-3-1-5-2-6-2-2-4-3-7-3l-18 0c-3 0-5 1-7 3-2 1-2 3-2 6l0 165c0 2 0 5 2 6 2 2 4 3 7 3l18 0c3 0 5-1 7-3 1-1 2-4 2-6z m73 0l0-165c0-3-1-5-2-6-2-2-4-3-7-3l-18 0c-3 0-5 1-7 3-1 1-2 3-2 6l0 165c0 2 1 5 2 6 2 2 4 3 7 3l18 0c3 0 5-1 7-3 1-1 2-4 2-6z m73 0l0-165c0-3 0-5-2-6-2-2-4-3-7-3l-18 0c-3 0-5 1-7 3-1 1-2 3-2 6l0 165c0 2 1 5 2 6 2 2 4 3 7 3l18 0c3 0 5-1 7-3 2-1 2-4 2-6z m37-207l0 271-256 0 0-271c0-4 1-8 2-12 1-3 3-6 4-7 2-2 3-3 3-3l238 0c0 0 1 1 3 3 1 1 3 4 4 7 1 4 2 8 2 12z m-192 307l128 0-14 34c-1 1-3 2-5 3l-90 0c-2-1-4-2-5-3z m265-9l0-18c0-3-1-5-2-7-2-1-4-2-7-2l-27 0 0-271c0-16-5-30-14-41-9-12-20-17-32-17l-238 0c-12 0-23 5-32 16-9 11-14 25-14 41l0 272-27 0c-3 0-5 1-7 2-1 2-2 4-2 7l0 18c0 3 1 5 2 7 2 1 4 2 7 2l88 0 20 48c3 7 8 13 16 18 7 5 15 7 22 7l92 0c7 0 15-2 22-7 8-5 13-11 16-18l20-48 88 0c3 0 5-1 7-2 1-2 2-4 2-7z"/>
<glyph glyph-name="twitter-square" unicode="&#98;" d="M402 338c-10-5-22-8-34-10 13 8 22 19 26 33-12-7-25-12-38-14-12 12-26 19-44 19-16 0-30-6-42-18-12-12-18-26-18-42 0-6 1-10 2-14-25 1-48 8-69 19-22 11-40 25-55 44-6-10-9-20-9-30 0-22 9-39 26-50-9 0-18 2-28 7l0-1c0-14 5-27 14-38 10-11 21-18 35-20-5-2-10-3-14-3-3 0-6 1-11 1 4-12 11-21 21-29 10-8 22-12 35-12-23-17-47-26-75-26-5 0-10 0-14 1 28-18 59-27 92-27 21 0 41 3 60 10 18 7 34 16 48 27 13 12 25 25 34 39 10 15 17 31 22 47 4 16 7 32 7 48 0 3-1 6-1 8 12 8 22 19 30 31z m73 55l0-274c0-23-8-42-24-58-16-16-35-24-58-24l-274 0c-23 0-42 8-58 24-16 16-24 35-24 58l0 274c0 23 8 42 24 58 16 16 35 24 58 24l274 0c23 0 42-8 58-24 16-16 24-35 24-58z"/>
<glyph glyph-name="unlock-alt" unicode="&#121;" d="M393 293c8 0 14-3 20-8 5-6 8-12 8-20l0-164c0-8-3-15-8-20-6-5-12-8-20-8l-274 0c-8 0-14 3-20 8-5 5-8 12-8 20l0 164c0 8 3 14 8 20 6 5 12 8 20 8l9 0 0 91c0 35 13 65 38 90 25 25 55 38 90 38 35 0 65-13 90-38 25-25 38-55 38-90 0-5-2-9-5-13-4-3-8-5-13-5l-19 0c-5 0-9 2-12 5-4 4-6 8-6 13 0 20-7 37-21 52-15 14-32 21-52 21-20 0-37-7-52-21-14-15-21-32-21-52l0-91z"/>
<glyph glyph-name="users" unicode="&#122;" d="M151 256c-31-1-56-13-76-37l-38 0c-15 0-29 4-39 12-11 8-16 19-16 34 0 67 12 101 35 101 1 0 5-2 13-6 7-4 16-8 27-12 12-5 23-7 34-7 13 0 26 3 38 7-1-7-1-13-1-19 0-26 8-51 23-73z m306-182c0-23-7-41-21-54-14-13-32-20-55-20l-250 0c-23 0-41 7-55 20-14 13-21 31-21 54 0 10 0 20 1 30 1 9 2 20 4 31 2 11 4 21 7 31 3 9 8 19 13 28 5 9 11 16 17 23 7 6 15 11 25 15 9 4 20 6 32 6 2 0 6-2 12-6 6-5 13-9 21-14 7-5 18-10 30-14 13-4 26-6 39-6 13 0 26 2 39 6 12 4 23 9 30 14 8 5 15 9 21 14 6 4 10 6 12 6 12 0 23-2 32-6 10-4 18-9 25-15 6-7 12-14 17-23 5-9 10-19 13-28 3-10 5-20 7-31 2-11 3-22 4-31 1-10 1-20 1-30z m-292 365c0-20-8-38-22-52-14-14-31-21-52-21-20 0-37 7-51 21-15 14-22 32-22 52 0 20 7 37 22 52 14 14 31 21 51 21 21 0 38-7 52-21 14-15 22-32 22-52z m201-110c0-30-11-56-32-77-22-22-48-33-78-33-30 0-56 11-78 33-21 21-32 47-32 77 0 30 11 56 32 78 22 21 48 32 78 32 30 0 56-11 78-32 21-22 32-48 32-78z m164-64c0-15-5-26-16-34-10-8-24-12-39-12l-38 0c-20 24-45 36-76 37 15 22 23 47 23 73 0 6 0 12-1 19 12-4 25-7 38-7 11 0 22 2 34 7 11 4 20 8 27 12 8 4 12 6 13 6 23 0 35-34 35-101z m-36 174c0-20-7-38-22-52-14-14-31-21-51-21-21 0-38 7-52 21-14 14-22 32-22 52 0 20 8 37 22 52 14 14 31 21 52 21 20 0 37-7 51-21 15-15 22-32 22-52z"/>
<glyph glyph-name="wrench" unicode="&#65;" d="M128 91c0 5-2 10-5 13-4 4-8 6-13 6-5 0-10-2-13-6-4-3-6-8-6-13 0-5 2-9 6-12 3-4 8-6 13-6 5 0 9 2 13 6 3 3 5 7 5 12z m184 120l-195-194c-7-7-15-11-26-11-9 0-18 4-26 11l-30 30c-7 7-11 16-11 26 0 10 4 19 11 26l195 195c7-19 18-35 32-50 15-14 31-25 50-33z m181 125c0-8-2-18-6-31-9-25-25-46-47-62-23-16-47-24-74-24-36 0-66 13-91 38-25 25-37 55-37 90 0 36 12 66 37 91 25 25 55 37 91 37 11 0 22-1 34-4 13-3 23-8 31-14 3-2 5-4 5-8 0-3-2-5-5-8l-84-48 0-64 56-30c1 0 8 5 22 13 14 9 27 17 39 24 12 6 18 10 20 10 3 0 5-1 7-3 1-2 2-4 2-7z"/>
<glyph glyph-name="youtube-square" unicode="&#100;" d="M299 140l0 45c0 9-3 14-8 14-3 0-7-2-10-5l0-64c3-3 7-4 10-4 5 0 8 4 8 14z m53 35l19 0 0 9c0 10-4 15-10 15-6 0-9-5-9-15z m-163 76l0-20-23 0 0-121-21 0 0 121-23 0 0 20z m57-36l0-105-19 0 0 11c-8-8-15-13-22-13-6 0-10 3-12 8-1 3-2 8-2 16l0 83 19 0 0-78c0-4 0-7 1-7 0-3 1-4 4-4 4 0 8 3 12 9l0 80z m72-32l0-42c0-10-1-17-2-21-2-8-7-12-15-12-7 0-13 4-20 12l0-10-19 0 0 141 19 0 0-46c7 7 13 11 20 11 8 0 13-4 15-12 1-4 2-11 2-21z m72-37l0-3c0-5 0-9-1-12 0-4-2-8-4-11-5-8-13-12-23-12-10 0-18 4-23 11-4 5-6 13-6 25l0 37c0 11 2 19 6 24 5 7 13 11 22 11 10 0 18-4 23-11 4-5 6-13 6-24l0-22-38 0 0-19c0-9 3-14 9-14 5 0 8 2 9 7 0 0 0 1 0 2 0 1 0 3 0 5l0 6z m-129 235l0-44c0-10-3-15-9-15-6 0-9 5-9 15l0 44c0 10 3 15 9 15 6 0 9-5 9-15z m152-203c0 33-2 58-5 74-2 8-6 15-13 21-6 6-13 9-21 10-26 3-65 4-118 4-52 0-92-1-117-4-9-1-16-4-22-10-6-6-11-13-12-21-4-17-6-41-6-74 0-34 2-59 6-75 1-8 6-15 12-20 6-6 13-9 21-10 26-3 66-5 118-5 52 0 92 2 118 5 8 1 15 4 21 10 6 5 11 12 12 20 4 16 6 41 6 75z m-216 186l26 84-21 0-15-55-15 55-22 0 7-19 6-20c7-20 11-35 13-45l0-58 21 0z m83-23l0 37c0 11-2 19-6 25-6 7-13 10-22 10-10 0-17-3-23-10-4-6-6-14-6-25l0-37c0-11 2-20 6-25 6-8 13-11 23-11 9 0 16 3 22 11 4 5 6 13 6 25z m52-35l19 0 0 106-19 0 0-81c-4-6-8-9-12-9-3 0-5 2-5 5 0 0 0 3 0 7l0 78-19 0 0-84c0-7 0-12 1-15 3-6 7-8 13-8 7 0 14 4 22 13z m143 87l0-274c0-23-8-42-24-58-16-16-35-24-58-24l-274 0c-23 0-42 8-58 24-16 16-24 35-24 58l0 274c0 23 8 42 24 58 16 16 35 24 58 24l274 0c23 0 42-8 58-24 16-16 24-35 24-58z"/>
</font></defs></svg>
