﻿{
	"preloader": ["Loading..."],
	"general": ["Gamemox", "Version", "TIMEMOX GAMES", "www.timemox.com","Oriol Faura", "oriol.faura@gmail.com"],	
	"pagemenu": ["New Play","Resume","Options","More games","Menu"],
	"pageseguro": ["YES","NO","Are you sure?"],
	"pagelevel": ["Back","Play","Select level","Mode Troll","TrollKiller"],
	"pagegame": ["Back","Retry","Level","Fail!","Try again!","Completed","Gold Medal","Silver Medal","Lives","Numbers","Powers","Fractions","Operations", "Only ", " & ","Random","Bronze Medal"],
	"pageoptions": ["Back","Language","Vibrate","Sound","Graphics","LOW","NORMAL","HIGH","ON","OFF","Setup"],
	"pagecontact": ["Back", "Author:","Contact"],
	"pagetutorial": ["Next","Previous","OK","Tutorial","Target","Match the terms.","When the 'infinite' appears,", "two cards change places.","Rules","To unlock some levels ...","you must win","gold medals"],
	"pagewinner": ["Congratulations!!", "You've passed all", "the levels.", "Thanks for playing!","You've passed the Mode Troll"],
	"paises":["0","9","16","3","12","15","6","17","2","7","10","1","8","13","4","11","14","5","19"]
}
